[gd_scene load_steps=5 format=2]

[ext_resource path="res://source/assets/image/bg.png" type="Texture" id=1]
[ext_resource path="res://source/assets/image/logotype.png" type="Texture" id=2]
[ext_resource path="res://source/assets/image/btn_play.png" type="Texture" id=3]
[ext_resource path="res://source/script/Menu.gd" type="Script" id=4]

[node name="Menu" type="Control"]
anchor_right = 1.0
anchor_bottom = 1.0
script = ExtResource( 4 )
__meta__ = {
"_edit_use_anchors_": false
}

[node name="Bg" type="TextureRect" parent="."]
anchor_right = 1.0
anchor_bottom = 1.0
texture = ExtResource( 1 )
expand = true
stretch_mode = 7
__meta__ = {
"_edit_use_anchors_": false
}

[node name="Logotype" type="TextureRect" parent="."]
anchor_left = 0.5
anchor_top = 0.5
anchor_right = 0.5
anchor_bottom = 0.5
margin_left = -150.0
margin_top = -198.0
margin_right = 150.0
margin_bottom = -10.0
texture = ExtResource( 2 )
__meta__ = {
"_edit_use_anchors_": false
}

[node name="BtnPlay" type="Button" parent="."]
anchor_left = 0.5
anchor_top = 0.5
anchor_right = 0.5
anchor_bottom = 0.5
margin_left = -168.0
margin_top = 52.5
margin_right = 168.0
margin_bottom = 155.5
focus_mode = 0
shortcut_in_tooltip = false
enabled_focus_mode = 0
flat = true
__meta__ = {
"_edit_group_": true,
"_edit_use_anchors_": false
}

[node name="TextureRect" type="TextureRect" parent="BtnPlay"]
margin_right = 365.0
margin_bottom = 135.0
mouse_filter = 2
texture = ExtResource( 3 )
__meta__ = {
"_edit_use_anchors_": false
}
[connection signal="pressed" from="BtnPlay" to="." method="_on_BtnPlay_pressed"]
